<?xml version="1.0" encoding="utf-8"?>
<!-- Generator: Adobe Illustrator 22.0.1, SVG Export Plug-In . SVG Version: 6.00 Build 0)  -->
<svg version="1.1" id="Capa_1" xmlns="http://www.w3.org/2000/svg" xmlns:xlink="http://www.w3.org/1999/xlink" x="0px" y="0px"
	 viewBox="0 0 166.3 135.6" style="enable-background:new 0 0 166.3 135.6;" xml:space="preserve">
<style type="text/css">
	.st0{fill:#C23926;}
	.st1{fill:#FFFF00;}
</style>
<title>logo-color_2</title>
<g id="Capa_2_1_">
	<g id="Home">
		<g id="Header">
			<path class="st0" d="M22.6,0h120.3c12.4,0,22.6,8.3,22.6,18.5V117c0,10.2-10.2,18.5-22.6,18.5H22.6C10.2,135.5,0,127.2,0,117
				V18.5C0,8.3,10.2,0,22.6,0"/>
			<path class="st1" d="M116.2,74.6c34.4-13,37-56.7-6.6-64.7c-33.8,0-65,0.3-98.8,0.3l0.4,115l53.9-0.1l0.7-43.8
				C77.2,80.7,88,111,95.5,125.6l59.2-0.3C145.9,106,134,86.9,116.2,74.6z M117.8,17.3c25.8,10.3,26.7,41.3-0.2,50.2
				C131.3,52.1,131.2,35.5,117.8,17.3z M28.1,120.6h-12L15.9,15.8h12.2V120.6z M60.1,119.1c-0.6,0.8-1.5,1.5-2.5,1.9
				c-1.2,0.5-2.4,0.7-3.7,0.7c-1.5,0.1-3-0.2-4.5-0.8c-1.3-0.6-2.3-1.6-3-2.8c-0.5-0.8-0.8-1.8-1-2.7c0,0.9-0.2,1.8-0.5,2.7
				c-0.4,1-1.1,1.9-2,2.5c-1.2,0.7-2.6,1.1-3.9,1c-1.3,0.1-2.7-0.2-3.9-0.7c-0.9-0.4-1.7-1.1-2.2-1.9c-0.5-1-0.8-2.1-0.9-3.3
				l4.9-0.7c0,0.6,0,1.1,0.2,1.7c0.1,0.3,0.3,0.6,0.6,0.9c0.7,0.4,1.6,0.2,2.1-0.4c0.3-0.7,0.5-1.4,0.4-2.2v-10.4h5.2v5.6
				c0.3-1.4,0.9-2.6,1.9-3.6c1.7-1.6,3.9-2.4,6.3-2.2c1.8-0.1,3.5,0.3,5,1.3c1.3,1,2.2,2.4,2.7,3.9l-4.6,1c-0.1-0.4-0.3-0.8-0.5-1.1
				c-0.3-0.4-0.6-0.7-1.1-0.9c-0.4-0.2-0.9-0.3-1.4-0.3c-1.1,0-2.1,0.5-2.7,1.4c-0.5,1-0.8,2.2-0.7,3.3c-0.1,1.3,0.2,2.7,0.8,3.8
				c1.2,1.3,3.3,1.4,4.6,0.2c0.6-0.7,0.9-1.5,1.1-2.4l4.5,1.4C61.3,117,60.8,118.1,60.1,119.1L60.1,119.1z M84,54.7H66V37l18-0.2
				C92.8,41.4,89.5,52.6,84,54.7z M113.3,78.8c17.9,11.1,29.5,36.1,32.9,41.1l-11.4,0.1C128.1,106.3,122.1,92.2,113.3,78.8
				L113.3,78.8z"/>
		</g>
	</g>
</g>
</svg>
